\relax 
\providecommand\hyper@newdestlabel[2]{}
\providecommand*\new@tpo@label[2]{}
\providecommand\HyperFirstAtBeginDocument{\AtBeginDocument}
\HyperFirstAtBeginDocument{\ifx\hyper@anchor\@undefined
\global\let\oldcontentsline\contentsline
\gdef\contentsline#1#2#3#4{\oldcontentsline{#1}{#2}{#3}}
\global\let\oldnewlabel\newlabel
\gdef\newlabel#1#2{\newlabelxx{#1}#2}
\gdef\newlabelxx#1#2#3#4#5#6{\oldnewlabel{#1}{{#2}{#3}}}
\AtEndDocument{\ifx\hyper@anchor\@undefined
\let\contentsline\oldcontentsline
\let\newlabel\oldnewlabel
\fi}
\fi}
\global\let\hyper@last\relax 
\gdef\HyperFirstAtBeginDocument#1{#1}
\providecommand\HyField@AuxAddToFields[1]{}
\providecommand\HyField@AuxAddToCoFields[2]{}
\citation{pandapaper}
\babel@aux{english}{}
\@writefile{toc}{\contentsline {section}{\numberline {1}Introduction}{1}{section.1}}
\@writefile{toc}{\contentsline {section}{\numberline {2}General Structure}{1}{section.2}}
\citation{pandapaper}
\citation{datasource}
\@writefile{toc}{\contentsline {section}{\numberline {3}First Implementation}{2}{section.3}}
\@writefile{toc}{\contentsline {section}{\numberline {4}First Optimizations}{2}{section.4}}
\@writefile{lof}{\contentsline {figure}{\numberline {4.1}{\ignorespaces Comparison of the executions times of various functions between two different implementations: one implementation presents sets (yellow) and the other one presents vectors (orange).\relax }}{4}{figure.caption.1}}
\providecommand*\caption@xref[2]{\@setref\relax\@undefined{#1}}
\newlabel{img1}{{4.1}{4}{Comparison of the executions times of various functions between two different implementations: one implementation presents sets (yellow) and the other one presents vectors (orange).\relax }{figure.caption.1}{}}
\@writefile{toc}{\contentsline {section}{\numberline {5}OpenMP Parallelization}{4}{section.5}}
\citation{autovec}
\@writefile{lof}{\contentsline {figure}{\numberline {5.1}{\ignorespaces Comparison of the executions times of various functions between two different implementations: one implementation is sequential (orange) and the other one is parallel (dark orange).\relax }}{5}{figure.caption.2}}
\newlabel{img2}{{5.1}{5}{Comparison of the executions times of various functions between two different implementations: one implementation is sequential (orange) and the other one is parallel (dark orange).\relax }{figure.caption.2}{}}
\@writefile{toc}{\contentsline {section}{\numberline {6}Optimization Obstacles}{5}{section.6}}
\citation{autovec}
\@writefile{lof}{\contentsline {figure}{\numberline {6.1}{\ignorespaces Comparison of the executions times of various functions with different optimizations: one is only optimized through parallelization (dark orange) and the other also through compiler optimizations (red).\relax }}{6}{figure.caption.3}}
\newlabel{img3}{{6.1}{6}{Comparison of the executions times of various functions with different optimizations: one is only optimized through parallelization (dark orange) and the other also through compiler optimizations (red).\relax }{figure.caption.3}{}}
\@writefile{toc}{\contentsline {section}{\numberline {7}Conclusion and Future Works}{6}{section.7}}
\bibcite{pandapaper}{1}
\bibcite{datasource}{2}
\bibcite{autovec}{3}
